<?xml version="1.0" encoding="UTF-8" standalone="no"?>
<!DOCTYPE svg PUBLIC "-//W3C//DTD SVG 1.1//EN"
 "http://www.w3.org/Graphics/SVG/1.1/DTD/svg11.dtd">
<!-- Generated by graphviz version 2.40.1 (0)
 -->
<!-- Title: snakemake_dag Pages: 1 -->
<svg width="578pt" height="1124pt"
 viewBox="0.00 0.00 578.00 1124.00" xmlns="http://www.w3.org/2000/svg" xmlns:xlink="http://www.w3.org/1999/xlink">
<g id="graph0" class="graph" transform="scale(1 1) rotate(0) translate(4 1120)">
<title>snakemake_dag</title>
<polygon fill="#ffffff" stroke="transparent" points="-4,4 -4,-1120 574,-1120 574,4 -4,4"/>
<!-- 0 -->
<g id="node1" class="node">
<title>0</title>
<path fill="none" stroke="#56d87b" stroke-width="2" d="M424,-36C424,-36 394,-36 394,-36 388,-36 382,-30 382,-24 382,-24 382,-12 382,-12 382,-6 388,0 394,0 394,0 424,0 424,0 430,0 436,-6 436,-12 436,-12 436,-24 436,-24 436,-30 430,-36 424,-36"/>
<text text-anchor="middle" x="409" y="-15.5" font-family="sans" font-size="10.00" fill="#000000">all</text>
</g>
<!-- 1 -->
<g id="node2" class="node">
<title>1</title>
<path fill="none" stroke="#d86e56" stroke-width="2" d="M395,-540C395,-540 333,-540 333,-540 327,-540 321,-534 321,-528 321,-528 321,-516 321,-516 321,-510 327,-504 333,-504 333,-504 395,-504 395,-504 401,-504 407,-510 407,-516 407,-516 407,-528 407,-528 407,-534 401,-540 395,-540"/>
<text text-anchor="middle" x="364" y="-519.5" font-family="sans" font-size="10.00" fill="#000000">simplify_fasta</text>
</g>
<!-- 1&#45;&gt;0 -->
<g id="edge1" class="edge">
<title>1&#45;&gt;0</title>
<path fill="none" stroke="#c0c0c0" stroke-width="2" d="M397.4782,-503.9646C435.9963,-480.4961 494,-435.5938 494,-378 494,-378 494,-378 494,-162 494,-115.4968 460.719,-70.8088 435.807,-43.8723"/>
<polygon fill="#c0c0c0" stroke="#c0c0c0" stroke-width="2" points="438.1469,-41.2543 428.7144,-36.4296 433.0794,-46.0835 438.1469,-41.2543"/>
</g>
<!-- 13 -->
<g id="node14" class="node">
<title>13</title>
<path fill="none" stroke="#56b1d8" stroke-width="2" d="M224.5,-396C224.5,-396 139.5,-396 139.5,-396 133.5,-396 127.5,-390 127.5,-384 127.5,-384 127.5,-372 127.5,-372 127.5,-366 133.5,-360 139.5,-360 139.5,-360 224.5,-360 224.5,-360 230.5,-360 236.5,-366 236.5,-372 236.5,-372 236.5,-384 236.5,-384 236.5,-390 230.5,-396 224.5,-396"/>
<text text-anchor="middle" x="182" y="-381" font-family="sans" font-size="10.00" fill="#000000">read_recruitment</text>
<text text-anchor="middle" x="182" y="-370" font-family="sans" font-size="10.00" fill="#000000">sample: B100_MET</text>
</g>
<!-- 1&#45;&gt;13 -->
<g id="edge23" class="edge">
<title>1&#45;&gt;13</title>
<path fill="none" stroke="#c0c0c0" stroke-width="2" d="M320.7184,-512.7863C278.0922,-502.8448 217.0934,-486.0022 201,-468 186.0928,-451.3247 181.8102,-425.9556 180.9887,-406.3974"/>
<polygon fill="#c0c0c0" stroke="#c0c0c0" stroke-width="2" points="184.4859,-406.1704 180.8428,-396.2216 177.4866,-406.2708 184.4859,-406.1704"/>
</g>
<!-- 14 -->
<g id="node15" class="node">
<title>14</title>
<path fill="none" stroke="#8fd856" stroke-width="2" d="M294,-468C294,-468 222,-468 222,-468 216,-468 210,-462 210,-456 210,-456 210,-444 210,-444 210,-438 216,-432 222,-432 222,-432 294,-432 294,-432 300,-432 306,-438 306,-444 306,-444 306,-456 306,-456 306,-462 300,-468 294,-468"/>
<text text-anchor="middle" x="258" y="-447.5" font-family="sans" font-size="10.00" fill="#000000">index_assembly</text>
</g>
<!-- 1&#45;&gt;14 -->
<g id="edge24" class="edge">
<title>1&#45;&gt;14</title>
<path fill="none" stroke="#c0c0c0" stroke-width="2" d="M337.2517,-503.8314C323.9447,-494.7927 307.684,-483.7476 293.3625,-474.0198"/>
<polygon fill="#c0c0c0" stroke="#c0c0c0" stroke-width="2" points="294.9785,-470.8864 284.7397,-468.1628 291.0453,-476.677 294.9785,-470.8864"/>
</g>
<!-- 16 -->
<g id="node17" class="node">
<title>16</title>
<path fill="none" stroke="#56b1d8" stroke-width="2" d="M453.5,-396C453.5,-396 374.5,-396 374.5,-396 368.5,-396 362.5,-390 362.5,-384 362.5,-384 362.5,-372 362.5,-372 362.5,-366 368.5,-360 374.5,-360 374.5,-360 453.5,-360 453.5,-360 459.5,-360 465.5,-366 465.5,-372 465.5,-372 465.5,-384 465.5,-384 465.5,-390 459.5,-396 453.5,-396"/>
<text text-anchor="middle" x="414" y="-381" font-family="sans" font-size="10.00" fill="#000000">read_recruitment</text>
<text text-anchor="middle" x="414" y="-370" font-family="sans" font-size="10.00" fill="#000000">sample: B90_MET</text>
</g>
<!-- 1&#45;&gt;16 -->
<g id="edge27" class="edge">
<title>1&#45;&gt;16</title>
<path fill="none" stroke="#c0c0c0" stroke-width="2" d="M370.3325,-503.7623C378.9359,-478.9846 394.3919,-434.4714 404.4188,-405.5939"/>
<polygon fill="#c0c0c0" stroke="#c0c0c0" stroke-width="2" points="407.7451,-406.6844 407.7189,-396.0896 401.1323,-404.3883 407.7451,-406.6844"/>
</g>
<!-- 20 -->
<g id="node21" class="node">
<title>20</title>
<path fill="none" stroke="#56c9d8" stroke-width="2" d="M283.5,-252C283.5,-252 210.5,-252 210.5,-252 204.5,-252 198.5,-246 198.5,-240 198.5,-240 198.5,-228 198.5,-228 198.5,-222 204.5,-216 210.5,-216 210.5,-216 283.5,-216 283.5,-216 289.5,-216 295.5,-222 295.5,-228 295.5,-228 295.5,-240 295.5,-240 295.5,-246 289.5,-252 283.5,-252"/>
<text text-anchor="middle" x="247" y="-231.5" font-family="sans" font-size="10.00" fill="#000000">make_contigsdb</text>
</g>
<!-- 1&#45;&gt;20 -->
<g id="edge34" class="edge">
<title>1&#45;&gt;20</title>
<path fill="none" stroke="#c0c0c0" stroke-width="2" d="M356.6811,-503.9843C336.8186,-455.0919 281.8069,-319.6785 258.1028,-261.33"/>
<polygon fill="#c0c0c0" stroke="#c0c0c0" stroke-width="2" points="261.3226,-259.9562 254.3161,-252.0089 254.8373,-262.5909 261.3226,-259.9562"/>
</g>
<!-- 2 -->
<g id="node3" class="node">
<title>2</title>
<path fill="none" stroke="#d8c356" stroke-width="2" d="M429.5,-612C429.5,-612 374.5,-612 374.5,-612 368.5,-612 362.5,-606 362.5,-600 362.5,-600 362.5,-588 362.5,-588 362.5,-582 368.5,-576 374.5,-576 374.5,-576 429.5,-576 429.5,-576 435.5,-576 441.5,-582 441.5,-588 441.5,-588 441.5,-600 441.5,-600 441.5,-606 435.5,-612 429.5,-612"/>
<text text-anchor="middle" x="402" y="-591.5" font-family="sans" font-size="10.00" fill="#000000">filterClusters</text>
</g>
<!-- 2&#45;&gt;0 -->
<g id="edge6" class="edge">
<title>2&#45;&gt;0</title>
<path fill="none" stroke="#c0c0c0" stroke-width="2" d="M435.4782,-575.9646C473.9963,-552.4961 532,-507.5938 532,-450 532,-450 532,-450 532,-162 532,-107.8197 481.0338,-63.7242 444.7161,-39.1803"/>
<polygon fill="#c0c0c0" stroke="#c0c0c0" stroke-width="2" points="446.5792,-36.2167 436.2977,-33.6592 442.7403,-42.0701 446.5792,-36.2167"/>
</g>
<!-- 2&#45;&gt;1 -->
<g id="edge10" class="edge">
<title>2&#45;&gt;1</title>
<path fill="none" stroke="#c0c0c0" stroke-width="2" d="M392.411,-575.8314C388.1683,-567.7925 383.0879,-558.1666 378.404,-549.2918"/>
<polygon fill="#c0c0c0" stroke="#c0c0c0" stroke-width="2" points="381.4811,-547.6235 373.7181,-540.4133 375.2904,-550.8908 381.4811,-547.6235"/>
</g>
<!-- 3 -->
<g id="node4" class="node">
<title>3</title>
<path fill="none" stroke="#56d863" stroke-width="2" d="M362,-684C362,-684 260,-684 260,-684 254,-684 248,-678 248,-672 248,-672 248,-660 248,-660 248,-654 254,-648 260,-648 260,-648 362,-648 362,-648 368,-648 374,-654 374,-660 374,-660 374,-672 374,-672 374,-678 368,-684 362,-684"/>
<text text-anchor="middle" x="311" y="-663.5" font-family="sans" font-size="10.00" fill="#000000">extractTabularClusters</text>
</g>
<!-- 3&#45;&gt;2 -->
<g id="edge11" class="edge">
<title>3&#45;&gt;2</title>
<path fill="none" stroke="#c0c0c0" stroke-width="2" d="M333.9631,-647.8314C345.1715,-638.9632 358.8209,-628.1637 370.9439,-618.5718"/>
<polygon fill="#c0c0c0" stroke="#c0c0c0" stroke-width="2" points="373.3737,-621.1125 379.0442,-612.1628 369.0303,-615.6229 373.3737,-621.1125"/>
</g>
<!-- 4 -->
<g id="node5" class="node">
<title>4</title>
<path fill="none" stroke="#566bd8" stroke-width="2" d="M405.5,-756C405.5,-756 352.5,-756 352.5,-756 346.5,-756 340.5,-750 340.5,-744 340.5,-744 340.5,-732 340.5,-732 340.5,-726 346.5,-720 352.5,-720 352.5,-720 405.5,-720 405.5,-720 411.5,-720 417.5,-726 417.5,-732 417.5,-732 417.5,-744 417.5,-744 417.5,-750 411.5,-756 405.5,-756"/>
<text text-anchor="middle" x="379" y="-735.5" font-family="sans" font-size="10.00" fill="#000000">createsubdb</text>
</g>
<!-- 4&#45;&gt;3 -->
<g id="edge13" class="edge">
<title>4&#45;&gt;3</title>
<path fill="none" stroke="#c0c0c0" stroke-width="2" d="M361.8407,-719.8314C353.8489,-711.3694 344.1962,-701.1489 335.4584,-691.8971"/>
<polygon fill="#c0c0c0" stroke="#c0c0c0" stroke-width="2" points="337.8011,-689.2802 328.3903,-684.4133 332.712,-694.0866 337.8011,-689.2802"/>
</g>
<!-- 11 -->
<g id="node12" class="node">
<title>11</title>
<path fill="none" stroke="#61d856" stroke-width="2" d="M491.5,-684C491.5,-684 404.5,-684 404.5,-684 398.5,-684 392.5,-678 392.5,-672 392.5,-672 392.5,-660 392.5,-660 392.5,-654 398.5,-648 404.5,-648 404.5,-648 491.5,-648 491.5,-648 497.5,-648 503.5,-654 503.5,-660 503.5,-660 503.5,-672 503.5,-672 503.5,-678 497.5,-684 491.5,-684"/>
<text text-anchor="middle" x="448" y="-663.5" font-family="sans" font-size="10.00" fill="#000000">extractClusterFasta</text>
</g>
<!-- 4&#45;&gt;11 -->
<g id="edge20" class="edge">
<title>4&#45;&gt;11</title>
<path fill="none" stroke="#c0c0c0" stroke-width="2" d="M396.4116,-719.8314C404.521,-711.3694 414.3156,-701.1489 423.182,-691.8971"/>
<polygon fill="#c0c0c0" stroke="#c0c0c0" stroke-width="2" points="425.9618,-694.0549 430.354,-684.4133 420.9079,-689.2115 425.9618,-694.0549"/>
</g>
<!-- 5 -->
<g id="node6" class="node">
<title>5</title>
<path fill="none" stroke="#a7d856" stroke-width="2" d="M398,-828C398,-828 360,-828 360,-828 354,-828 348,-822 348,-816 348,-816 348,-804 348,-804 348,-798 354,-792 360,-792 360,-792 398,-792 398,-792 404,-792 410,-798 410,-804 410,-804 410,-816 410,-816 410,-822 404,-828 398,-828"/>
<text text-anchor="middle" x="379" y="-807.5" font-family="sans" font-size="10.00" fill="#000000">lincluster</text>
</g>
<!-- 5&#45;&gt;4 -->
<g id="edge14" class="edge">
<title>5&#45;&gt;4</title>
<path fill="none" stroke="#c0c0c0" stroke-width="2" d="M379,-791.8314C379,-784.131 379,-774.9743 379,-766.4166"/>
<polygon fill="#c0c0c0" stroke="#c0c0c0" stroke-width="2" points="382.5001,-766.4132 379,-756.4133 375.5001,-766.4133 382.5001,-766.4132"/>
</g>
<!-- 6 -->
<g id="node7" class="node">
<title>6</title>
<path fill="none" stroke="#bed856" stroke-width="2" d="M419,-900C419,-900 339,-900 339,-900 333,-900 327,-894 327,-888 327,-888 327,-876 327,-876 327,-870 333,-864 339,-864 339,-864 419,-864 419,-864 425,-864 431,-870 431,-876 431,-876 431,-888 431,-888 431,-894 425,-900 419,-900"/>
<text text-anchor="middle" x="379" y="-879.5" font-family="sans" font-size="10.00" fill="#000000">make_MMSeqsDB</text>
</g>
<!-- 6&#45;&gt;5 -->
<g id="edge15" class="edge">
<title>6&#45;&gt;5</title>
<path fill="none" stroke="#c0c0c0" stroke-width="2" d="M379,-863.8314C379,-856.131 379,-846.9743 379,-838.4166"/>
<polygon fill="#c0c0c0" stroke="#c0c0c0" stroke-width="2" points="382.5001,-838.4132 379,-828.4133 375.5001,-838.4133 382.5001,-838.4132"/>
</g>
<!-- 7 -->
<g id="node8" class="node">
<title>7</title>
<path fill="none" stroke="#d8b456" stroke-width="2" d="M403,-972C403,-972 355,-972 355,-972 349,-972 343,-966 343,-960 343,-960 343,-948 343,-948 343,-942 349,-936 355,-936 355,-936 403,-936 403,-936 409,-936 415,-942 415,-948 415,-948 415,-960 415,-960 415,-966 409,-972 403,-972"/>
<text text-anchor="middle" x="379" y="-951.5" font-family="sans" font-size="10.00" fill="#000000">filterLength</text>
</g>
<!-- 7&#45;&gt;6 -->
<g id="edge16" class="edge">
<title>7&#45;&gt;6</title>
<path fill="none" stroke="#c0c0c0" stroke-width="2" d="M379,-935.8314C379,-928.131 379,-918.9743 379,-910.4166"/>
<polygon fill="#c0c0c0" stroke="#c0c0c0" stroke-width="2" points="382.5001,-910.4132 379,-900.4133 375.5001,-910.4133 382.5001,-910.4132"/>
</g>
<!-- 8 -->
<g id="node9" class="node">
<title>8</title>
<path fill="none" stroke="#56d8d0" stroke-width="2" d="M411.5,-1044C411.5,-1044 346.5,-1044 346.5,-1044 340.5,-1044 334.5,-1038 334.5,-1032 334.5,-1032 334.5,-1020 334.5,-1020 334.5,-1014 340.5,-1008 346.5,-1008 346.5,-1008 411.5,-1008 411.5,-1008 417.5,-1008 423.5,-1014 423.5,-1020 423.5,-1020 423.5,-1032 423.5,-1032 423.5,-1038 417.5,-1044 411.5,-1044"/>
<text text-anchor="middle" x="379" y="-1023.5" font-family="sans" font-size="10.00" fill="#000000">combine_fasta</text>
</g>
<!-- 8&#45;&gt;7 -->
<g id="edge17" class="edge">
<title>8&#45;&gt;7</title>
<path fill="none" stroke="#c0c0c0" stroke-width="2" d="M379,-1007.8314C379,-1000.131 379,-990.9743 379,-982.4166"/>
<polygon fill="#c0c0c0" stroke="#c0c0c0" stroke-width="2" points="382.5001,-982.4132 379,-972.4133 375.5001,-982.4133 382.5001,-982.4132"/>
</g>
<!-- 9 -->
<g id="node10" class="node">
<title>9</title>
<path fill="none" stroke="#5682d8" stroke-width="2" stroke-dasharray="5,2" d="M331.5,-1116C331.5,-1116 246.5,-1116 246.5,-1116 240.5,-1116 234.5,-1110 234.5,-1104 234.5,-1104 234.5,-1092 234.5,-1092 234.5,-1086 240.5,-1080 246.5,-1080 246.5,-1080 331.5,-1080 331.5,-1080 337.5,-1080 343.5,-1086 343.5,-1092 343.5,-1092 343.5,-1104 343.5,-1104 343.5,-1110 337.5,-1116 331.5,-1116"/>
<text text-anchor="middle" x="289" y="-1101" font-family="sans" font-size="10.00" fill="#000000">add_samplename</text>
<text text-anchor="middle" x="289" y="-1090" font-family="sans" font-size="10.00" fill="#000000">sample: B100_MET</text>
</g>
<!-- 9&#45;&gt;0 -->
<g id="edge2" class="edge">
<title>9&#45;&gt;0</title>
<path fill="none" stroke="#c0c0c0" stroke-width="2" d="M234.3016,-1094.8126C150.5174,-1086.647 0,-1057.5654 0,-954 0,-954 0,-954 0,-162 0,-83.568 270.9803,-37.412 371.8024,-22.9533"/>
<polygon fill="#c0c0c0" stroke="#c0c0c0" stroke-width="2" points="372.4341,-26.399 381.8476,-21.5374 371.457,-19.4675 372.4341,-26.399"/>
</g>
<!-- 9&#45;&gt;8 -->
<g id="edge18" class="edge">
<title>9&#45;&gt;8</title>
<path fill="none" stroke="#c0c0c0" stroke-width="2" d="M311.7108,-1079.8314C322.796,-1070.9632 336.2954,-1060.1637 348.2852,-1050.5718"/>
<polygon fill="#c0c0c0" stroke="#c0c0c0" stroke-width="2" points="350.6742,-1053.1429 356.2965,-1044.1628 346.3013,-1047.6768 350.6742,-1053.1429"/>
</g>
<!-- 10 -->
<g id="node11" class="node">
<title>10</title>
<path fill="none" stroke="#5682d8" stroke-width="2" stroke-dasharray="5,2" d="M509,-1116C509,-1116 429,-1116 429,-1116 423,-1116 417,-1110 417,-1104 417,-1104 417,-1092 417,-1092 417,-1086 423,-1080 429,-1080 429,-1080 509,-1080 509,-1080 515,-1080 521,-1086 521,-1092 521,-1092 521,-1104 521,-1104 521,-1110 515,-1116 509,-1116"/>
<text text-anchor="middle" x="469" y="-1101" font-family="sans" font-size="10.00" fill="#000000">add_samplename</text>
<text text-anchor="middle" x="469" y="-1090" font-family="sans" font-size="10.00" fill="#000000">sample: B90_MET</text>
</g>
<!-- 10&#45;&gt;0 -->
<g id="edge3" class="edge">
<title>10&#45;&gt;0</title>
<path fill="none" stroke="#c0c0c0" stroke-width="2" d="M492.9356,-1079.9237C522.8027,-1055.1078 570,-1007.4385 570,-954 570,-954 570,-954 570,-162 570,-95.6924 493.193,-52.2848 445.6797,-31.7761"/>
<polygon fill="#c0c0c0" stroke="#c0c0c0" stroke-width="2" points="446.8879,-28.4877 436.3115,-27.8634 444.1901,-34.947 446.8879,-28.4877"/>
</g>
<!-- 10&#45;&gt;8 -->
<g id="edge19" class="edge">
<title>10&#45;&gt;8</title>
<path fill="none" stroke="#c0c0c0" stroke-width="2" d="M446.2892,-1079.8314C435.204,-1070.9632 421.7046,-1060.1637 409.7148,-1050.5718"/>
<polygon fill="#c0c0c0" stroke="#c0c0c0" stroke-width="2" points="411.6987,-1047.6768 401.7035,-1044.1628 407.3258,-1053.1429 411.6987,-1047.6768"/>
</g>
<!-- 11&#45;&gt;2 -->
<g id="edge12" class="edge">
<title>11&#45;&gt;2</title>
<path fill="none" stroke="#c0c0c0" stroke-width="2" d="M436.3923,-647.8314C431.2022,-639.7079 424.9768,-629.9637 419.2575,-621.0118"/>
<polygon fill="#c0c0c0" stroke="#c0c0c0" stroke-width="2" points="422.0974,-618.9559 413.764,-612.4133 416.1985,-622.7246 422.0974,-618.9559"/>
</g>
<!-- 12 -->
<g id="node13" class="node">
<title>12</title>
<path fill="none" stroke="#56d892" stroke-width="2" d="M131,-324C131,-324 87,-324 87,-324 81,-324 75,-318 75,-312 75,-312 75,-300 75,-300 75,-294 81,-288 87,-288 87,-288 131,-288 131,-288 137,-288 143,-294 143,-300 143,-300 143,-312 143,-312 143,-318 137,-324 131,-324"/>
<text text-anchor="middle" x="109" y="-303.5" font-family="sans" font-size="10.00" fill="#000000">sort_bams</text>
</g>
<!-- 12&#45;&gt;0 -->
<g id="edge4" class="edge">
<title>12&#45;&gt;0</title>
<path fill="none" stroke="#c0c0c0" stroke-width="2" d="M96.5676,-287.7449C85.5177,-269.0736 72.722,-239.5473 84,-216 139.6282,-99.8544 298.9515,-45.79 371.8186,-26.6017"/>
<polygon fill="#c0c0c0" stroke="#c0c0c0" stroke-width="2" points="373.0975,-29.8874 381.9196,-24.0205 371.3643,-23.1054 373.0975,-29.8874"/>
</g>
<!-- 18 -->
<g id="node19" class="node">
<title>18</title>
<path fill="none" stroke="#d6d856" stroke-width="2" d="M266,-180C266,-180 228,-180 228,-180 222,-180 216,-174 216,-168 216,-168 216,-156 216,-156 216,-150 222,-144 228,-144 228,-144 266,-144 266,-144 272,-144 278,-150 278,-156 278,-156 278,-168 278,-168 278,-174 272,-180 266,-180"/>
<text text-anchor="middle" x="247" y="-159.5" font-family="sans" font-size="10.00" fill="#000000">profileDB</text>
</g>
<!-- 12&#45;&gt;18 -->
<g id="edge32" class="edge">
<title>12&#45;&gt;18</title>
<path fill="none" stroke="#c0c0c0" stroke-width="2" d="M99.0804,-287.6922C89.9957,-268.1633 80.0436,-237.1857 95,-216 108.1026,-197.4402 165.6533,-180.7152 206.0475,-170.9545"/>
<polygon fill="#c0c0c0" stroke="#c0c0c0" stroke-width="2" points="206.9818,-174.3303 215.9101,-168.6262 205.3734,-167.5175 206.9818,-174.3303"/>
</g>
<!-- 19 -->
<g id="node20" class="node">
<title>19</title>
<path fill="none" stroke="#56d8a2" stroke-width="2" d="M168,-252C168,-252 116,-252 116,-252 110,-252 104,-246 104,-240 104,-240 104,-228 104,-228 104,-222 110,-216 116,-216 116,-216 168,-216 168,-216 174,-216 180,-222 180,-228 180,-228 180,-240 180,-240 180,-246 174,-252 168,-252"/>
<text text-anchor="middle" x="142" y="-231.5" font-family="sans" font-size="10.00" fill="#000000">index_bams</text>
</g>
<!-- 12&#45;&gt;19 -->
<g id="edge33" class="edge">
<title>12&#45;&gt;19</title>
<path fill="none" stroke="#c0c0c0" stroke-width="2" d="M117.3273,-287.8314C120.973,-279.8771 125.3309,-270.369 129.3627,-261.5723"/>
<polygon fill="#c0c0c0" stroke="#c0c0c0" stroke-width="2" points="132.5757,-262.9622 133.5606,-252.4133 126.2123,-260.0456 132.5757,-262.9622"/>
</g>
<!-- 13&#45;&gt;12 -->
<g id="edge21" class="edge">
<title>13&#45;&gt;12</title>
<path fill="none" stroke="#c0c0c0" stroke-width="2" d="M163.579,-359.8314C154.8471,-351.219 144.2683,-340.7851 134.7577,-331.4048"/>
<polygon fill="#c0c0c0" stroke="#c0c0c0" stroke-width="2" points="136.9925,-328.6931 127.4151,-324.1628 132.077,-333.6769 136.9925,-328.6931"/>
</g>
<!-- 14&#45;&gt;13 -->
<g id="edge22" class="edge">
<title>14&#45;&gt;13</title>
<path fill="none" stroke="#c0c0c0" stroke-width="2" d="M238.822,-431.8314C229.6412,-423.1337 218.4994,-412.5783 208.5224,-403.1265"/>
<polygon fill="#c0c0c0" stroke="#c0c0c0" stroke-width="2" points="210.8385,-400.4995 201.1719,-396.1628 206.0243,-405.5811 210.8385,-400.4995"/>
</g>
<!-- 14&#45;&gt;16 -->
<g id="edge26" class="edge">
<title>14&#45;&gt;16</title>
<path fill="none" stroke="#c0c0c0" stroke-width="2" d="M297.3654,-431.8314C318.1367,-422.2446 343.7983,-410.4008 365.7581,-400.2655"/>
<polygon fill="#c0c0c0" stroke="#c0c0c0" stroke-width="2" points="367.3048,-403.4065 374.9177,-396.038 364.3714,-397.0508 367.3048,-403.4065"/>
</g>
<!-- 15 -->
<g id="node16" class="node">
<title>15</title>
<path fill="none" stroke="#56d892" stroke-width="2" d="M438,-324C438,-324 394,-324 394,-324 388,-324 382,-318 382,-312 382,-312 382,-300 382,-300 382,-294 388,-288 394,-288 394,-288 438,-288 438,-288 444,-288 450,-294 450,-300 450,-300 450,-312 450,-312 450,-318 444,-324 438,-324"/>
<text text-anchor="middle" x="416" y="-303.5" font-family="sans" font-size="10.00" fill="#000000">sort_bams</text>
</g>
<!-- 15&#45;&gt;0 -->
<g id="edge5" class="edge">
<title>15&#45;&gt;0</title>
<path fill="none" stroke="#c0c0c0" stroke-width="2" d="M417.2812,-287.5162C417.9399,-277.0924 418.6717,-263.8262 419,-252 421.0593,-177.8076 415.0981,-90.4528 411.5069,-46.4241"/>
<polygon fill="#c0c0c0" stroke="#c0c0c0" stroke-width="2" points="414.973,-45.8715 410.6513,-36.1982 407.9974,-46.4552 414.973,-45.8715"/>
</g>
<!-- 21 -->
<g id="node22" class="node">
<title>21</title>
<path fill="none" stroke="#d6d856" stroke-width="2" d="M371,-180C371,-180 333,-180 333,-180 327,-180 321,-174 321,-168 321,-168 321,-156 321,-156 321,-150 327,-144 333,-144 333,-144 371,-144 371,-144 377,-144 383,-150 383,-156 383,-156 383,-168 383,-168 383,-174 377,-180 371,-180"/>
<text text-anchor="middle" x="352" y="-159.5" font-family="sans" font-size="10.00" fill="#000000">profileDB</text>
</g>
<!-- 15&#45;&gt;21 -->
<g id="edge37" class="edge">
<title>15&#45;&gt;21</title>
<path fill="none" stroke="#c0c0c0" stroke-width="2" d="M415.3527,-287.8836C414.0608,-269.063 410.2383,-239.1794 399,-216 394.0183,-205.7251 386.5588,-195.8701 379.0416,-187.457"/>
<polygon fill="#c0c0c0" stroke="#c0c0c0" stroke-width="2" points="381.5892,-185.057 372.1912,-180.1653 376.4875,-189.85 381.5892,-185.057"/>
</g>
<!-- 22 -->
<g id="node23" class="node">
<title>22</title>
<path fill="none" stroke="#56d8a2" stroke-width="2" d="M378,-252C378,-252 326,-252 326,-252 320,-252 314,-246 314,-240 314,-240 314,-228 314,-228 314,-222 320,-216 326,-216 326,-216 378,-216 378,-216 384,-216 390,-222 390,-228 390,-228 390,-240 390,-240 390,-246 384,-252 378,-252"/>
<text text-anchor="middle" x="352" y="-231.5" font-family="sans" font-size="10.00" fill="#000000">index_bams</text>
</g>
<!-- 15&#45;&gt;22 -->
<g id="edge38" class="edge">
<title>15&#45;&gt;22</title>
<path fill="none" stroke="#c0c0c0" stroke-width="2" d="M399.8501,-287.8314C392.3283,-279.3694 383.2435,-269.1489 375.0196,-259.8971"/>
<polygon fill="#c0c0c0" stroke="#c0c0c0" stroke-width="2" points="377.627,-257.5621 368.3673,-252.4133 372.3951,-262.2127 377.627,-257.5621"/>
</g>
<!-- 16&#45;&gt;15 -->
<g id="edge25" class="edge">
<title>16&#45;&gt;15</title>
<path fill="none" stroke="#c0c0c0" stroke-width="2" d="M414.5047,-359.8314C414.7186,-352.131 414.9729,-342.9743 415.2106,-334.4166"/>
<polygon fill="#c0c0c0" stroke="#c0c0c0" stroke-width="2" points="418.7094,-334.5066 415.4885,-324.4133 411.7121,-334.3122 418.7094,-334.5066"/>
</g>
<!-- 17 -->
<g id="node18" class="node">
<title>17</title>
<path fill="none" stroke="#56d8b9" stroke-width="2" d="M368.5,-108C368.5,-108 313.5,-108 313.5,-108 307.5,-108 301.5,-102 301.5,-96 301.5,-96 301.5,-84 301.5,-84 301.5,-78 307.5,-72 313.5,-72 313.5,-72 368.5,-72 368.5,-72 374.5,-72 380.5,-78 380.5,-84 380.5,-84 380.5,-96 380.5,-96 380.5,-102 374.5,-108 368.5,-108"/>
<text text-anchor="middle" x="341" y="-87.5" font-family="sans" font-size="10.00" fill="#000000">mergeProfile</text>
</g>
<!-- 17&#45;&gt;0 -->
<g id="edge7" class="edge">
<title>17&#45;&gt;0</title>
<path fill="none" stroke="#c0c0c0" stroke-width="2" d="M358.1593,-71.8314C366.1511,-63.3694 375.8038,-53.1489 384.5416,-43.8971"/>
<polygon fill="#c0c0c0" stroke="#c0c0c0" stroke-width="2" points="387.288,-46.0866 391.6097,-36.4133 382.1989,-41.2802 387.288,-46.0866"/>
</g>
<!-- 18&#45;&gt;0 -->
<g id="edge8" class="edge">
<title>18&#45;&gt;0</title>
<path fill="none" stroke="#c0c0c0" stroke-width="2" d="M252.0538,-143.9338C258.4375,-124.0333 271.1768,-92.1826 292,-72 314.4071,-50.2822 347.1309,-36.1996 372.277,-27.8794"/>
<polygon fill="#c0c0c0" stroke="#c0c0c0" stroke-width="2" points="373.3609,-31.2075 381.8485,-24.8662 371.2589,-24.5306 373.3609,-31.2075"/>
</g>
<!-- 18&#45;&gt;17 -->
<g id="edge28" class="edge">
<title>18&#45;&gt;17</title>
<path fill="none" stroke="#c0c0c0" stroke-width="2" d="M270.7202,-143.8314C282.4094,-134.8779 296.6688,-123.9558 309.2809,-114.2955"/>
<polygon fill="#c0c0c0" stroke="#c0c0c0" stroke-width="2" points="311.4769,-117.0222 317.2874,-108.1628 307.2203,-111.4651 311.4769,-117.0222"/>
</g>
<!-- 19&#45;&gt;18 -->
<g id="edge30" class="edge">
<title>19&#45;&gt;18</title>
<path fill="none" stroke="#c0c0c0" stroke-width="2" d="M168.4959,-215.8314C181.6774,-206.7927 197.7847,-195.7476 211.9711,-186.0198"/>
<polygon fill="#c0c0c0" stroke="#c0c0c0" stroke-width="2" points="214.2446,-188.7047 220.5125,-180.1628 210.2859,-182.9316 214.2446,-188.7047"/>
</g>
<!-- 20&#45;&gt;18 -->
<g id="edge31" class="edge">
<title>20&#45;&gt;18</title>
<path fill="none" stroke="#c0c0c0" stroke-width="2" d="M247,-215.8314C247,-208.131 247,-198.9743 247,-190.4166"/>
<polygon fill="#c0c0c0" stroke="#c0c0c0" stroke-width="2" points="250.5001,-190.4132 247,-180.4133 243.5001,-190.4133 250.5001,-190.4132"/>
</g>
<!-- 20&#45;&gt;21 -->
<g id="edge36" class="edge">
<title>20&#45;&gt;21</title>
<path fill="none" stroke="#c0c0c0" stroke-width="2" d="M273.4959,-215.8314C286.6774,-206.7927 302.7847,-195.7476 316.9711,-186.0198"/>
<polygon fill="#c0c0c0" stroke="#c0c0c0" stroke-width="2" points="319.2446,-188.7047 325.5125,-180.1628 315.2859,-182.9316 319.2446,-188.7047"/>
</g>
<!-- 21&#45;&gt;0 -->
<g id="edge9" class="edge">
<title>21&#45;&gt;0</title>
<path fill="none" stroke="#c0c0c0" stroke-width="2" d="M367.2604,-143.5561C374.8153,-133.5775 383.4773,-120.7174 389,-108 397.5808,-88.2407 402.667,-64.3824 405.5615,-46.1963"/>
<polygon fill="#c0c0c0" stroke="#c0c0c0" stroke-width="2" points="409.0367,-46.6194 407.0222,-36.2179 402.1106,-45.6054 409.0367,-46.6194"/>
</g>
<!-- 21&#45;&gt;17 -->
<g id="edge29" class="edge">
<title>21&#45;&gt;17</title>
<path fill="none" stroke="#c0c0c0" stroke-width="2" d="M349.2242,-143.8314C348.0478,-136.131 346.6489,-126.9743 345.3414,-118.4166"/>
<polygon fill="#c0c0c0" stroke="#c0c0c0" stroke-width="2" points="348.7833,-117.7699 343.8131,-108.4133 341.8636,-118.8272 348.7833,-117.7699"/>
</g>
<!-- 22&#45;&gt;21 -->
<g id="edge35" class="edge">
<title>22&#45;&gt;21</title>
<path fill="none" stroke="#c0c0c0" stroke-width="2" d="M352,-215.8314C352,-208.131 352,-198.9743 352,-190.4166"/>
<polygon fill="#c0c0c0" stroke="#c0c0c0" stroke-width="2" points="355.5001,-190.4132 352,-180.4133 348.5001,-190.4133 355.5001,-190.4132"/>
</g>
</g>
</svg>
