<?xml version="1.0" encoding="UTF-8" standalone="no"?>
<!DOCTYPE svg PUBLIC "-//W3C//DTD SVG 1.1//EN"
 "http://www.w3.org/Graphics/SVG/1.1/DTD/svg11.dtd">
<!-- Generated by graphviz version 2.40.1 (0)
 -->
<!-- Title: snakemake_dag Pages: 1 -->
<svg width="370pt" height="1124pt"
 viewBox="0.00 0.00 370.00 1124.00" xmlns="http://www.w3.org/2000/svg" xmlns:xlink="http://www.w3.org/1999/xlink">
<g id="graph0" class="graph" transform="scale(1 1) rotate(0) translate(4 1120)">
<title>snakemake_dag</title>
<polygon fill="#ffffff" stroke="transparent" points="-4,4 -4,-1120 366,-1120 366,4 -4,4"/>
<!-- 0 -->
<g id="node1" class="node">
<title>0</title>
<path fill="none" stroke="#8fd856" stroke-width="2" d="M196,-36C196,-36 166,-36 166,-36 160,-36 154,-30 154,-24 154,-24 154,-12 154,-12 154,-6 160,0 166,0 166,0 196,0 196,0 202,0 208,-6 208,-12 208,-12 208,-24 208,-24 208,-30 202,-36 196,-36"/>
<text text-anchor="middle" x="181" y="-15.5" font-family="sans" font-size="10.00" fill="#000000">all</text>
</g>
<!-- 1 -->
<g id="node2" class="node">
<title>1</title>
<path fill="none" stroke="#d89c56" stroke-width="2" d="M208.5,-108C208.5,-108 153.5,-108 153.5,-108 147.5,-108 141.5,-102 141.5,-96 141.5,-96 141.5,-84 141.5,-84 141.5,-78 147.5,-72 153.5,-72 153.5,-72 208.5,-72 208.5,-72 214.5,-72 220.5,-78 220.5,-84 220.5,-84 220.5,-96 220.5,-96 220.5,-102 214.5,-108 208.5,-108"/>
<text text-anchor="middle" x="181" y="-87.5" font-family="sans" font-size="10.00" fill="#000000">mergeProfile</text>
</g>
<!-- 1&#45;&gt;0 -->
<g id="edge1" class="edge">
<title>1&#45;&gt;0</title>
<path fill="none" stroke="#c0c0c0" stroke-width="2" d="M181,-71.8314C181,-64.131 181,-54.9743 181,-46.4166"/>
<polygon fill="#c0c0c0" stroke="#c0c0c0" stroke-width="2" points="184.5001,-46.4132 181,-36.4133 177.5001,-46.4133 184.5001,-46.4132"/>
</g>
<!-- 2 -->
<g id="node3" class="node">
<title>2</title>
<path fill="none" stroke="#56d863" stroke-width="2" d="M160,-180C160,-180 122,-180 122,-180 116,-180 110,-174 110,-168 110,-168 110,-156 110,-156 110,-150 116,-144 122,-144 122,-144 160,-144 160,-144 166,-144 172,-150 172,-156 172,-156 172,-168 172,-168 172,-174 166,-180 160,-180"/>
<text text-anchor="middle" x="141" y="-159.5" font-family="sans" font-size="10.00" fill="#000000">profileDB</text>
</g>
<!-- 2&#45;&gt;1 -->
<g id="edge2" class="edge">
<title>2&#45;&gt;1</title>
<path fill="none" stroke="#c0c0c0" stroke-width="2" d="M151.0937,-143.8314C155.5597,-135.7925 160.9075,-126.1666 165.8379,-117.2918"/>
<polygon fill="#c0c0c0" stroke="#c0c0c0" stroke-width="2" points="168.9735,-118.8546 170.7704,-108.4133 162.8544,-115.4551 168.9735,-118.8546"/>
</g>
<!-- 3 -->
<g id="node4" class="node">
<title>3</title>
<path fill="none" stroke="#d8b456" stroke-width="2" d="M64,-252C64,-252 12,-252 12,-252 6,-252 0,-246 0,-240 0,-240 0,-228 0,-228 0,-222 6,-216 12,-216 12,-216 64,-216 64,-216 70,-216 76,-222 76,-228 76,-228 76,-240 76,-240 76,-246 70,-252 64,-252"/>
<text text-anchor="middle" x="38" y="-231.5" font-family="sans" font-size="10.00" fill="#000000">index_bams</text>
</g>
<!-- 3&#45;&gt;2 -->
<g id="edge4" class="edge">
<title>3&#45;&gt;2</title>
<path fill="none" stroke="#c0c0c0" stroke-width="2" d="M63.9912,-215.8314C76.9216,-206.7927 92.7222,-195.7476 106.6383,-186.0198"/>
<polygon fill="#c0c0c0" stroke="#c0c0c0" stroke-width="2" points="108.8263,-188.7608 115.0171,-180.1628 104.8157,-183.0235 108.8263,-188.7608"/>
</g>
<!-- 4 -->
<g id="node5" class="node">
<title>4</title>
<path fill="none" stroke="#78d856" stroke-width="2" d="M120,-324C120,-324 76,-324 76,-324 70,-324 64,-318 64,-312 64,-312 64,-300 64,-300 64,-294 70,-288 76,-288 76,-288 120,-288 120,-288 126,-288 132,-294 132,-300 132,-300 132,-312 132,-312 132,-318 126,-324 120,-324"/>
<text text-anchor="middle" x="98" y="-303.5" font-family="sans" font-size="10.00" fill="#000000">sort_bams</text>
</g>
<!-- 4&#45;&gt;2 -->
<g id="edge6" class="edge">
<title>4&#45;&gt;2</title>
<path fill="none" stroke="#c0c0c0" stroke-width="2" d="M102.7135,-287.9925C107.5515,-269.7679 115.4228,-240.8156 123,-216 125.5851,-207.5337 128.565,-198.3805 131.3469,-190.0579"/>
<polygon fill="#c0c0c0" stroke="#c0c0c0" stroke-width="2" points="134.7181,-191.0141 134.6021,-180.4199 128.0862,-188.7742 134.7181,-191.0141"/>
</g>
<!-- 4&#45;&gt;3 -->
<g id="edge7" class="edge">
<title>4&#45;&gt;3</title>
<path fill="none" stroke="#c0c0c0" stroke-width="2" d="M82.8595,-287.8314C75.8783,-279.454 67.4609,-269.3531 59.8124,-260.1749"/>
<polygon fill="#c0c0c0" stroke="#c0c0c0" stroke-width="2" points="62.4351,-257.8548 53.3444,-252.4133 57.0575,-262.3362 62.4351,-257.8548"/>
</g>
<!-- 5 -->
<g id="node6" class="node">
<title>5</title>
<path fill="none" stroke="#56c9d8" stroke-width="2" d="M140.5,-396C140.5,-396 55.5,-396 55.5,-396 49.5,-396 43.5,-390 43.5,-384 43.5,-384 43.5,-372 43.5,-372 43.5,-366 49.5,-360 55.5,-360 55.5,-360 140.5,-360 140.5,-360 146.5,-360 152.5,-366 152.5,-372 152.5,-372 152.5,-384 152.5,-384 152.5,-390 146.5,-396 140.5,-396"/>
<text text-anchor="middle" x="98" y="-381" font-family="sans" font-size="10.00" fill="#000000">read_recruitment</text>
<text text-anchor="middle" x="98" y="-370" font-family="sans" font-size="10.00" fill="#000000">sample: B100_MET</text>
</g>
<!-- 5&#45;&gt;4 -->
<g id="edge8" class="edge">
<title>5&#45;&gt;4</title>
<path fill="none" stroke="#c0c0c0" stroke-width="2" d="M98,-359.8314C98,-352.131 98,-342.9743 98,-334.4166"/>
<polygon fill="#c0c0c0" stroke="#c0c0c0" stroke-width="2" points="101.5001,-334.4132 98,-324.4133 94.5001,-334.4133 101.5001,-334.4132"/>
</g>
<!-- 6 -->
<g id="node7" class="node">
<title>6</title>
<path fill="none" stroke="#566bd8" stroke-width="2" d="M293,-468C293,-468 221,-468 221,-468 215,-468 209,-462 209,-456 209,-456 209,-444 209,-444 209,-438 215,-432 221,-432 221,-432 293,-432 293,-432 299,-432 305,-438 305,-444 305,-444 305,-456 305,-456 305,-462 299,-468 293,-468"/>
<text text-anchor="middle" x="257" y="-447.5" font-family="sans" font-size="10.00" fill="#000000">index_assembly</text>
</g>
<!-- 6&#45;&gt;5 -->
<g id="edge9" class="edge">
<title>6&#45;&gt;5</title>
<path fill="none" stroke="#c0c0c0" stroke-width="2" d="M216.8776,-431.8314C195.7068,-422.2446 169.5517,-410.4008 147.1697,-400.2655"/>
<polygon fill="#c0c0c0" stroke="#c0c0c0" stroke-width="2" points="148.3872,-396.9748 137.8339,-396.038 145.4997,-403.3515 148.3872,-396.9748"/>
</g>
<!-- 22 -->
<g id="node23" class="node">
<title>22</title>
<path fill="none" stroke="#56c9d8" stroke-width="2" d="M331.5,-396C331.5,-396 252.5,-396 252.5,-396 246.5,-396 240.5,-390 240.5,-384 240.5,-384 240.5,-372 240.5,-372 240.5,-366 246.5,-360 252.5,-360 252.5,-360 331.5,-360 331.5,-360 337.5,-360 343.5,-366 343.5,-372 343.5,-372 343.5,-384 343.5,-384 343.5,-390 337.5,-396 331.5,-396"/>
<text text-anchor="middle" x="292" y="-381" font-family="sans" font-size="10.00" fill="#000000">read_recruitment</text>
<text text-anchor="middle" x="292" y="-370" font-family="sans" font-size="10.00" fill="#000000">sample: B90_MET</text>
</g>
<!-- 6&#45;&gt;22 -->
<g id="edge29" class="edge">
<title>6&#45;&gt;22</title>
<path fill="none" stroke="#c0c0c0" stroke-width="2" d="M265.832,-431.8314C269.6986,-423.8771 274.3206,-414.369 278.5968,-405.5723"/>
<polygon fill="#c0c0c0" stroke="#c0c0c0" stroke-width="2" points="281.8249,-406.9371 283.0491,-396.4133 275.5293,-403.8768 281.8249,-406.9371"/>
</g>
<!-- 7 -->
<g id="node8" class="node">
<title>7</title>
<path fill="none" stroke="#56d8b9" stroke-width="2" d="M250,-540C250,-540 188,-540 188,-540 182,-540 176,-534 176,-528 176,-528 176,-516 176,-516 176,-510 182,-504 188,-504 188,-504 250,-504 250,-504 256,-504 262,-510 262,-516 262,-516 262,-528 262,-528 262,-534 256,-540 250,-540"/>
<text text-anchor="middle" x="219" y="-519.5" font-family="sans" font-size="10.00" fill="#000000">simplify_fasta</text>
</g>
<!-- 7&#45;&gt;5 -->
<g id="edge10" class="edge">
<title>7&#45;&gt;5</title>
<path fill="none" stroke="#c0c0c0" stroke-width="2" d="M200.6632,-503.9857C190.4572,-493.7087 177.6932,-480.4331 167,-468 149.237,-447.3469 130.5195,-422.7291 117.0678,-404.465"/>
<polygon fill="#c0c0c0" stroke="#c0c0c0" stroke-width="2" points="119.644,-402.0585 110.9145,-396.0546 113.9945,-406.1918 119.644,-402.0585"/>
</g>
<!-- 7&#45;&gt;6 -->
<g id="edge11" class="edge">
<title>7&#45;&gt;6</title>
<path fill="none" stroke="#c0c0c0" stroke-width="2" d="M228.589,-503.8314C232.8317,-495.7925 237.9121,-486.1666 242.596,-477.2918"/>
<polygon fill="#c0c0c0" stroke="#c0c0c0" stroke-width="2" points="245.7096,-478.8908 247.2819,-468.4133 239.5189,-475.6235 245.7096,-478.8908"/>
</g>
<!-- 18 -->
<g id="node19" class="node">
<title>18</title>
<path fill="none" stroke="#d6d856" stroke-width="2" d="M217.5,-252C217.5,-252 144.5,-252 144.5,-252 138.5,-252 132.5,-246 132.5,-240 132.5,-240 132.5,-228 132.5,-228 132.5,-222 138.5,-216 144.5,-216 144.5,-216 217.5,-216 217.5,-216 223.5,-216 229.5,-222 229.5,-228 229.5,-228 229.5,-240 229.5,-240 229.5,-246 223.5,-252 217.5,-252"/>
<text text-anchor="middle" x="181" y="-231.5" font-family="sans" font-size="10.00" fill="#000000">make_contigsdb</text>
</g>
<!-- 7&#45;&gt;18 -->
<g id="edge23" class="edge">
<title>7&#45;&gt;18</title>
<path fill="none" stroke="#c0c0c0" stroke-width="2" d="M211.2937,-503.8426C207.2498,-493.5209 202.6064,-480.2481 200,-468 184.4431,-394.8937 181.4245,-306.4522 180.9638,-262.1582"/>
<polygon fill="#c0c0c0" stroke="#c0c0c0" stroke-width="2" points="184.4636,-262.1118 180.8964,-252.1356 177.4638,-262.1589 184.4636,-262.1118"/>
</g>
<!-- 7&#45;&gt;22 -->
<g id="edge30" class="edge">
<title>7&#45;&gt;22</title>
<path fill="none" stroke="#c0c0c0" stroke-width="2" d="M262.2406,-508.7104C281.6782,-500.3339 302.7418,-487.3493 314,-468 325.2798,-448.6135 317.7444,-423.6443 308.5441,-404.9258"/>
<polygon fill="#c0c0c0" stroke="#c0c0c0" stroke-width="2" points="311.6021,-403.2215 303.8212,-396.0307 305.4195,-406.5043 311.6021,-403.2215"/>
</g>
<!-- 8 -->
<g id="node9" class="node">
<title>8</title>
<path fill="none" stroke="#5682d8" stroke-width="2" d="M246.5,-612C246.5,-612 191.5,-612 191.5,-612 185.5,-612 179.5,-606 179.5,-600 179.5,-600 179.5,-588 179.5,-588 179.5,-582 185.5,-576 191.5,-576 191.5,-576 246.5,-576 246.5,-576 252.5,-576 258.5,-582 258.5,-588 258.5,-588 258.5,-600 258.5,-600 258.5,-606 252.5,-612 246.5,-612"/>
<text text-anchor="middle" x="219" y="-591.5" font-family="sans" font-size="10.00" fill="#000000">filterClusters</text>
</g>
<!-- 8&#45;&gt;7 -->
<g id="edge12" class="edge">
<title>8&#45;&gt;7</title>
<path fill="none" stroke="#c0c0c0" stroke-width="2" d="M219,-575.8314C219,-568.131 219,-558.9743 219,-550.4166"/>
<polygon fill="#c0c0c0" stroke="#c0c0c0" stroke-width="2" points="222.5001,-550.4132 219,-540.4133 215.5001,-550.4133 222.5001,-550.4132"/>
</g>
<!-- 9 -->
<g id="node10" class="node">
<title>9</title>
<path fill="none" stroke="#61d856" stroke-width="2" d="M202,-684C202,-684 100,-684 100,-684 94,-684 88,-678 88,-672 88,-672 88,-660 88,-660 88,-654 94,-648 100,-648 100,-648 202,-648 202,-648 208,-648 214,-654 214,-660 214,-660 214,-672 214,-672 214,-678 208,-684 202,-684"/>
<text text-anchor="middle" x="151" y="-663.5" font-family="sans" font-size="10.00" fill="#000000">extractTabularClusters</text>
</g>
<!-- 9&#45;&gt;8 -->
<g id="edge13" class="edge">
<title>9&#45;&gt;8</title>
<path fill="none" stroke="#c0c0c0" stroke-width="2" d="M168.1593,-647.8314C176.1511,-639.3694 185.8038,-629.1489 194.5416,-619.8971"/>
<polygon fill="#c0c0c0" stroke="#c0c0c0" stroke-width="2" points="197.288,-622.0866 201.6097,-612.4133 192.1989,-617.2802 197.288,-622.0866"/>
</g>
<!-- 10 -->
<g id="node11" class="node">
<title>10</title>
<path fill="none" stroke="#56d8d0" stroke-width="2" d="M245.5,-756C245.5,-756 192.5,-756 192.5,-756 186.5,-756 180.5,-750 180.5,-744 180.5,-744 180.5,-732 180.5,-732 180.5,-726 186.5,-720 192.5,-720 192.5,-720 245.5,-720 245.5,-720 251.5,-720 257.5,-726 257.5,-732 257.5,-732 257.5,-744 257.5,-744 257.5,-750 251.5,-756 245.5,-756"/>
<text text-anchor="middle" x="219" y="-735.5" font-family="sans" font-size="10.00" fill="#000000">createsubdb</text>
</g>
<!-- 10&#45;&gt;9 -->
<g id="edge15" class="edge">
<title>10&#45;&gt;9</title>
<path fill="none" stroke="#c0c0c0" stroke-width="2" d="M201.8407,-719.8314C193.8489,-711.3694 184.1962,-701.1489 175.4584,-691.8971"/>
<polygon fill="#c0c0c0" stroke="#c0c0c0" stroke-width="2" points="177.8011,-689.2802 168.3903,-684.4133 172.712,-694.0866 177.8011,-689.2802"/>
</g>
<!-- 17 -->
<g id="node18" class="node">
<title>17</title>
<path fill="none" stroke="#a7d856" stroke-width="2" d="M331.5,-684C331.5,-684 244.5,-684 244.5,-684 238.5,-684 232.5,-678 232.5,-672 232.5,-672 232.5,-660 232.5,-660 232.5,-654 238.5,-648 244.5,-648 244.5,-648 331.5,-648 331.5,-648 337.5,-648 343.5,-654 343.5,-660 343.5,-660 343.5,-672 343.5,-672 343.5,-678 337.5,-684 331.5,-684"/>
<text text-anchor="middle" x="288" y="-663.5" font-family="sans" font-size="10.00" fill="#000000">extractClusterFasta</text>
</g>
<!-- 10&#45;&gt;17 -->
<g id="edge22" class="edge">
<title>10&#45;&gt;17</title>
<path fill="none" stroke="#c0c0c0" stroke-width="2" d="M236.4116,-719.8314C244.521,-711.3694 254.3156,-701.1489 263.182,-691.8971"/>
<polygon fill="#c0c0c0" stroke="#c0c0c0" stroke-width="2" points="265.9618,-694.0549 270.354,-684.4133 260.9079,-689.2115 265.9618,-694.0549"/>
</g>
<!-- 11 -->
<g id="node12" class="node">
<title>11</title>
<path fill="none" stroke="#d86e56" stroke-width="2" d="M238,-828C238,-828 200,-828 200,-828 194,-828 188,-822 188,-816 188,-816 188,-804 188,-804 188,-798 194,-792 200,-792 200,-792 238,-792 238,-792 244,-792 250,-798 250,-804 250,-804 250,-816 250,-816 250,-822 244,-828 238,-828"/>
<text text-anchor="middle" x="219" y="-807.5" font-family="sans" font-size="10.00" fill="#000000">lincluster</text>
</g>
<!-- 11&#45;&gt;10 -->
<g id="edge16" class="edge">
<title>11&#45;&gt;10</title>
<path fill="none" stroke="#c0c0c0" stroke-width="2" d="M219,-791.8314C219,-784.131 219,-774.9743 219,-766.4166"/>
<polygon fill="#c0c0c0" stroke="#c0c0c0" stroke-width="2" points="222.5001,-766.4132 219,-756.4133 215.5001,-766.4133 222.5001,-766.4132"/>
</g>
<!-- 12 -->
<g id="node13" class="node">
<title>12</title>
<path fill="none" stroke="#56d892" stroke-width="2" d="M259,-900C259,-900 179,-900 179,-900 173,-900 167,-894 167,-888 167,-888 167,-876 167,-876 167,-870 173,-864 179,-864 179,-864 259,-864 259,-864 265,-864 271,-870 271,-876 271,-876 271,-888 271,-888 271,-894 265,-900 259,-900"/>
<text text-anchor="middle" x="219" y="-879.5" font-family="sans" font-size="10.00" fill="#000000">make_MMSeqsDB</text>
</g>
<!-- 12&#45;&gt;11 -->
<g id="edge17" class="edge">
<title>12&#45;&gt;11</title>
<path fill="none" stroke="#c0c0c0" stroke-width="2" d="M219,-863.8314C219,-856.131 219,-846.9743 219,-838.4166"/>
<polygon fill="#c0c0c0" stroke="#c0c0c0" stroke-width="2" points="222.5001,-838.4132 219,-828.4133 215.5001,-838.4133 222.5001,-838.4132"/>
</g>
<!-- 13 -->
<g id="node14" class="node">
<title>13</title>
<path fill="none" stroke="#d85656" stroke-width="2" d="M243,-972C243,-972 195,-972 195,-972 189,-972 183,-966 183,-960 183,-960 183,-948 183,-948 183,-942 189,-936 195,-936 195,-936 243,-936 243,-936 249,-936 255,-942 255,-948 255,-948 255,-960 255,-960 255,-966 249,-972 243,-972"/>
<text text-anchor="middle" x="219" y="-951.5" font-family="sans" font-size="10.00" fill="#000000">filterLength</text>
</g>
<!-- 13&#45;&gt;12 -->
<g id="edge18" class="edge">
<title>13&#45;&gt;12</title>
<path fill="none" stroke="#c0c0c0" stroke-width="2" d="M219,-935.8314C219,-928.131 219,-918.9743 219,-910.4166"/>
<polygon fill="#c0c0c0" stroke="#c0c0c0" stroke-width="2" points="222.5001,-910.4132 219,-900.4133 215.5001,-910.4133 222.5001,-910.4132"/>
</g>
<!-- 14 -->
<g id="node15" class="node">
<title>14</title>
<path fill="none" stroke="#56b1d8" stroke-width="2" d="M251.5,-1044C251.5,-1044 186.5,-1044 186.5,-1044 180.5,-1044 174.5,-1038 174.5,-1032 174.5,-1032 174.5,-1020 174.5,-1020 174.5,-1014 180.5,-1008 186.5,-1008 186.5,-1008 251.5,-1008 251.5,-1008 257.5,-1008 263.5,-1014 263.5,-1020 263.5,-1020 263.5,-1032 263.5,-1032 263.5,-1038 257.5,-1044 251.5,-1044"/>
<text text-anchor="middle" x="219" y="-1023.5" font-family="sans" font-size="10.00" fill="#000000">combine_fasta</text>
</g>
<!-- 14&#45;&gt;13 -->
<g id="edge19" class="edge">
<title>14&#45;&gt;13</title>
<path fill="none" stroke="#c0c0c0" stroke-width="2" d="M219,-1007.8314C219,-1000.131 219,-990.9743 219,-982.4166"/>
<polygon fill="#c0c0c0" stroke="#c0c0c0" stroke-width="2" points="222.5001,-982.4132 219,-972.4133 215.5001,-982.4133 222.5001,-982.4132"/>
</g>
<!-- 15 -->
<g id="node16" class="node">
<title>15</title>
<path fill="none" stroke="#56d8a2" stroke-width="2" stroke-dasharray="5,2" d="M199.5,-1116C199.5,-1116 114.5,-1116 114.5,-1116 108.5,-1116 102.5,-1110 102.5,-1104 102.5,-1104 102.5,-1092 102.5,-1092 102.5,-1086 108.5,-1080 114.5,-1080 114.5,-1080 199.5,-1080 199.5,-1080 205.5,-1080 211.5,-1086 211.5,-1092 211.5,-1092 211.5,-1104 211.5,-1104 211.5,-1110 205.5,-1116 199.5,-1116"/>
<text text-anchor="middle" x="157" y="-1101" font-family="sans" font-size="10.00" fill="#000000">add_samplename</text>
<text text-anchor="middle" x="157" y="-1090" font-family="sans" font-size="10.00" fill="#000000">sample: B100_MET</text>
</g>
<!-- 15&#45;&gt;14 -->
<g id="edge20" class="edge">
<title>15&#45;&gt;14</title>
<path fill="none" stroke="#c0c0c0" stroke-width="2" d="M172.6452,-1079.8314C179.8591,-1071.454 188.557,-1061.3531 196.4605,-1052.1749"/>
<polygon fill="#c0c0c0" stroke="#c0c0c0" stroke-width="2" points="199.2711,-1054.2748 203.1441,-1044.4133 193.9667,-1049.7071 199.2711,-1054.2748"/>
</g>
<!-- 16 -->
<g id="node17" class="node">
<title>16</title>
<path fill="none" stroke="#56d8a2" stroke-width="2" stroke-dasharray="5,2" d="M322,-1116C322,-1116 242,-1116 242,-1116 236,-1116 230,-1110 230,-1104 230,-1104 230,-1092 230,-1092 230,-1086 236,-1080 242,-1080 242,-1080 322,-1080 322,-1080 328,-1080 334,-1086 334,-1092 334,-1092 334,-1104 334,-1104 334,-1110 328,-1116 322,-1116"/>
<text text-anchor="middle" x="282" y="-1101" font-family="sans" font-size="10.00" fill="#000000">add_samplename</text>
<text text-anchor="middle" x="282" y="-1090" font-family="sans" font-size="10.00" fill="#000000">sample: B90_MET</text>
</g>
<!-- 16&#45;&gt;14 -->
<g id="edge21" class="edge">
<title>16&#45;&gt;14</title>
<path fill="none" stroke="#c0c0c0" stroke-width="2" d="M266.1024,-1079.8314C258.7722,-1071.454 249.934,-1061.3531 241.9031,-1052.1749"/>
<polygon fill="#c0c0c0" stroke="#c0c0c0" stroke-width="2" points="244.3307,-1049.6343 235.1116,-1044.4133 239.0627,-1054.2438 244.3307,-1049.6343"/>
</g>
<!-- 17&#45;&gt;8 -->
<g id="edge14" class="edge">
<title>17&#45;&gt;8</title>
<path fill="none" stroke="#c0c0c0" stroke-width="2" d="M270.5884,-647.8314C262.479,-639.3694 252.6844,-629.1489 243.818,-619.8971"/>
<polygon fill="#c0c0c0" stroke="#c0c0c0" stroke-width="2" points="246.0921,-617.2115 236.646,-612.4133 241.0382,-622.0549 246.0921,-617.2115"/>
</g>
<!-- 18&#45;&gt;2 -->
<g id="edge5" class="edge">
<title>18&#45;&gt;2</title>
<path fill="none" stroke="#c0c0c0" stroke-width="2" d="M170.9063,-215.8314C166.4403,-207.7925 161.0925,-198.1666 156.1621,-189.2918"/>
<polygon fill="#c0c0c0" stroke="#c0c0c0" stroke-width="2" points="159.1456,-187.4551 151.2296,-180.4133 153.0265,-190.8546 159.1456,-187.4551"/>
</g>
<!-- 19 -->
<g id="node20" class="node">
<title>19</title>
<path fill="none" stroke="#56d863" stroke-width="2" d="M258,-180C258,-180 220,-180 220,-180 214,-180 208,-174 208,-168 208,-168 208,-156 208,-156 208,-150 214,-144 220,-144 220,-144 258,-144 258,-144 264,-144 270,-150 270,-156 270,-156 270,-168 270,-168 270,-174 264,-180 258,-180"/>
<text text-anchor="middle" x="239" y="-159.5" font-family="sans" font-size="10.00" fill="#000000">profileDB</text>
</g>
<!-- 18&#45;&gt;19 -->
<g id="edge25" class="edge">
<title>18&#45;&gt;19</title>
<path fill="none" stroke="#c0c0c0" stroke-width="2" d="M195.6358,-215.8314C202.3161,-207.5386 210.3568,-197.557 217.6904,-188.4533"/>
<polygon fill="#c0c0c0" stroke="#c0c0c0" stroke-width="2" points="220.6194,-190.3965 224.1671,-180.4133 215.1681,-186.0052 220.6194,-190.3965"/>
</g>
<!-- 19&#45;&gt;1 -->
<g id="edge3" class="edge">
<title>19&#45;&gt;1</title>
<path fill="none" stroke="#c0c0c0" stroke-width="2" d="M224.3642,-143.8314C217.6839,-135.5386 209.6432,-125.557 202.3096,-116.4533"/>
<polygon fill="#c0c0c0" stroke="#c0c0c0" stroke-width="2" points="204.8319,-114.0052 195.8329,-108.4133 199.3806,-118.3965 204.8319,-114.0052"/>
</g>
<!-- 20 -->
<g id="node21" class="node">
<title>20</title>
<path fill="none" stroke="#d8b456" stroke-width="2" d="M350,-252C350,-252 298,-252 298,-252 292,-252 286,-246 286,-240 286,-240 286,-228 286,-228 286,-222 292,-216 298,-216 298,-216 350,-216 350,-216 356,-216 362,-222 362,-228 362,-228 362,-240 362,-240 362,-246 356,-252 350,-252"/>
<text text-anchor="middle" x="324" y="-231.5" font-family="sans" font-size="10.00" fill="#000000">index_bams</text>
</g>
<!-- 20&#45;&gt;19 -->
<g id="edge24" class="edge">
<title>20&#45;&gt;19</title>
<path fill="none" stroke="#c0c0c0" stroke-width="2" d="M302.5509,-215.8314C292.1822,-207.0485 279.5771,-196.3712 268.3354,-186.8489"/>
<polygon fill="#c0c0c0" stroke="#c0c0c0" stroke-width="2" points="270.3349,-183.9556 260.4422,-180.1628 265.8105,-189.297 270.3349,-183.9556"/>
</g>
<!-- 21 -->
<g id="node22" class="node">
<title>21</title>
<path fill="none" stroke="#78d856" stroke-width="2" d="M314,-324C314,-324 270,-324 270,-324 264,-324 258,-318 258,-312 258,-312 258,-300 258,-300 258,-294 264,-288 270,-288 270,-288 314,-288 314,-288 320,-288 326,-294 326,-300 326,-300 326,-312 326,-312 326,-318 320,-324 314,-324"/>
<text text-anchor="middle" x="292" y="-303.5" font-family="sans" font-size="10.00" fill="#000000">sort_bams</text>
</g>
<!-- 21&#45;&gt;19 -->
<g id="edge26" class="edge">
<title>21&#45;&gt;19</title>
<path fill="none" stroke="#c0c0c0" stroke-width="2" d="M285.2875,-287.7623C276.168,-262.9846 259.7846,-218.4714 249.1561,-189.5939"/>
<polygon fill="#c0c0c0" stroke="#c0c0c0" stroke-width="2" points="252.3967,-188.2652 245.658,-180.0896 245.8275,-190.6831 252.3967,-188.2652"/>
</g>
<!-- 21&#45;&gt;20 -->
<g id="edge27" class="edge">
<title>21&#45;&gt;20</title>
<path fill="none" stroke="#c0c0c0" stroke-width="2" d="M300.075,-287.8314C303.6102,-279.8771 307.836,-270.369 311.7456,-261.5723"/>
<polygon fill="#c0c0c0" stroke="#c0c0c0" stroke-width="2" points="314.9532,-262.9729 315.8163,-252.4133 308.5565,-260.1299 314.9532,-262.9729"/>
</g>
<!-- 22&#45;&gt;21 -->
<g id="edge28" class="edge">
<title>22&#45;&gt;21</title>
<path fill="none" stroke="#c0c0c0" stroke-width="2" d="M292,-359.8314C292,-352.131 292,-342.9743 292,-334.4166"/>
<polygon fill="#c0c0c0" stroke="#c0c0c0" stroke-width="2" points="295.5001,-334.4132 292,-324.4133 288.5001,-334.4133 295.5001,-334.4132"/>
</g>
</g>
</svg>
